A [dead]
B [dead]
C [dead]
D [dead]
E Dallas
F Atlanta
G TampaBay
H NewOrleans
I Pheonix
J NewYork
K Buffalo
L Philadelphia
M Boston
N Miami
O Reno
P [dead]
Q [dead]
R [dead]
S Sacramento
T Jacksonville
U [dead]
V Memphis
W Cleveland
X [dead]
Y [dead]
Z Madison
